Fit quantiles to vocabulary sizes using quantile regression — fit_vocab_quantiles • wordbankr
…
    Value

A data frame with the columns "language", "form", "age", group

(if specified), "quantile", and measure, where measure is the
  fit vocabulary value for that quantile at that age.

    Examples

# \donttest{
eng_wg <- get_administration_data("English (American)", "WG", include_demographic_info = TRUE)
fit_vocab_quantiles(eng_wg, production)
#> # A tibble: 55 × 5
#>    language           form    age quantile production
#>    <chr>              <chr> <int> <fct>         <dbl>
#>  1 English (American) WG        8 0.1       -1.10e+ 0
#>  2 English (American) WG        9 0.1       -8.84e- 1
#>  3 English (American) WG       10 0.1       -4.70e- 1
#>  4 English (American) WG       11 0.1        2.90e-13
#>  5 English (American) WG       12 0.1        5.26e- 1
#>  6 English (American) WG       13 0.1        1.11e+ 0
#>  7 English (American) WG       14 0.1        1.75e+ 0
#>  8 English (American) WG       15 0.1        2.44e+ 0
#>  9 English (American) WG       16 0.1        3.19e+ 0
#> 10 English (American) WG       17 0.1        4.00e+ 0
#> # … with 45 more rows
#> # ℹ Use `print(n = ...)` to see more rows
fit_vocab_quantiles(eng_wg, production, sex)
#> Error in vars({    {        group    }}): could not find function "vars"
fit_vocab_quantiles(eng_wg, production, quantiles = "quartiles")
#> # A tibble: 33 × 5
#>    language           form    age quantile production
#>    <chr>              <chr> <int> <fct>         <dbl>
#>  1 English (American) WG        8 0.25        -0.948 
#>  2 English (American) WG        9 0.25        -0.690 
#>  3 English (American) WG       10 0.25        -0.0103
#>  4 English (American) WG       11 0.25         1.00  
#>  5 English (American) WG       12 0.25         2.34  
#>  6 English (American) WG       13 0.25         4.01  
#>  7 English (American) WG       14 0.25         6.01  
#>  8 English (American) WG       15 0.25         8.35  
#>  9 English (American) WG       16 0.25        11.0   
#> 10 English (American) WG       17 0.25        14.0   
#> # … with 23 more rows
#> # ℹ Use `print(n = ...)` to see more rows
…
